{ "data": [
{"sexo": 0, "edad": 20, "cat1": 0, "cat2" : 0 , "cat3":0, "cat4":0 , "type": "perfil2"},
{"sexo": 1, "edad": 35, "cat1": 1, "cat2" : 1 , "cat3":1, "cat4":1 , "type": "perfil1"},
{"sexo": 0, "edad": 19, "cat1": 0, "cat2" : 0 , "cat3":0, "cat4":0 , "type": "perfil3"},
{"sexo": 1, "edad": 40, "cat1": 0, "cat2" : 0 , "cat3":0, "cat4":0 , "type": "perfil1"},
{"sexo": 1, "edad": 42, "cat1": 0, "cat2" : 0 , "cat3":0, "cat4":0 , "type": "perfil1"},
{"sexo": 0, "edad": 45, "cat1": 1, "cat2" : 1 , "cat3":1, "cat4":1 , "type": "perfil1"},
{"sexo": 1, "edad": 30, "cat1": 0, "cat2" : 0 , "cat3":0, "cat4":0 , "type": "perfil2"}
] }
